2 Desarrollo del reto SUNLAB. | Hackathon Talento - Reto 1 - SUNLAB
…
Vemos la distribución por año-mes

registers_by_year_month <- prod_2015_2016 %>% 
                      select(Datetime) %>%
                      group_by(year = year(prod_2015_2016$Datetime),
                               month = month(prod_2015_2016$Datetime)) %>%
                      summarise(registers = n())

registers_by_year_month

## # A tibble: 21 x 3
## # Groups:   year [2]
##     year month registers
##    <int> <int>     <int>
##  1  2015     1     18730
##  2  2015     2     18297
##  3  2015     3     21094
##  4  2015     4     23460
##  5  2015     5     26183
##  6  2015     6     25146
##  7  2015     7     25908
##  8  2015     8     25252
##  9  2015     9     22380
## 10  2015    10     19067
## # ... with 11 more rows
…
